ARM GAS  /tmp/cc9mLEv8.s 			page 1


   1              		.syntax unified
   2              		.thumb
   3              		.file	"syncobj.c"
   4              		.section	.debug_abbrev,"",%progbits
   5              	.Ldebug_abbrev0:
   6              		.section	.debug_info,"",%progbits
   7              	.Ldebug_info0:
   8              		.section	.debug_line,"",%progbits
   9              	.Ldebug_line0:
  10 0000 CA010000 		.text
  10      02006401 
  10      00000201 
  10      FB0E0D00 
  10      01010101 
  11              	.Ltext0:
  12              		.cfi_sections	.debug_frame
  13              		.section	.text.ff_cre_syncobj,"ax",%progbits
  14              		.align	2
  15              		.p2align 4,,15
  16              		.global	ff_cre_syncobj
  17              		.thumb
  18              		.thumb_func
  19              		.type	ff_cre_syncobj, %function
  20              	ff_cre_syncobj:
  21              	.LFB5:
  22              		.file 1 "chibios/ext/fatfs/src/option/syncobj.c"
  23              		.loc 1 30 0
  24              		.cfi_startproc
  25              		@ args = 0, pretend = 0, frame = 0
  26              		@ frame_needed = 0, uses_anonymous_args = 0
  27              	.LVL0:
  28              		.loc 1 43 0
  29 0000 40F20003 		movw	r3, #:lower16:.LANCHOR0
  30              		.loc 1 30 0
  31 0004 30B5     		push	{r4, r5, lr}
  32              	.LCFI0:
  33              		.cfi_def_cfa_offset 12
  34              		.loc 1 43 0
  35 0006 C0F20003 		movt	r3, #:upper16:.LANCHOR0
  36              		.loc 1 30 0
  37 000a C4B2     		uxtb	r4, r0
  38              		.cfi_offset 14, -4
  39              		.cfi_offset 5, -8
  40              		.cfi_offset 4, -12
  41              		.loc 1 43 0
  42 000c 03EB0414 		add	r4, r3, r4, lsl #4
  43 0010 2046     		mov	r0, r4
  44              	.LVL1:
  45              		.loc 1 30 0
  46 0012 0D46     		mov	r5, r1
  47              		.loc 1 43 0
  48 0014 FFF7FEFF 		bl	chMtxInit
  49              	.LVL2:
  50              		.loc 1 44 0
  51 0018 2C60     		str	r4, [r5, #0]
  52              	.LVL3:
  53              		.loc 1 49 0
ARM GAS  /tmp/cc9mLEv8.s 			page 2


  54 001a 0120     		movs	r0, #1
  55 001c 30BD     		pop	{r4, r5, pc}
  56              		.cfi_endproc
  57              	.LFE5:
  58              		.size	ff_cre_syncobj, .-ff_cre_syncobj
  59 001e 00BF     		.section	.text.ff_del_syncobj,"ax",%progbits
  60              		.align	2
  61              		.p2align 4,,15
  62              		.global	ff_del_syncobj
  63              		.thumb
  64              		.thumb_func
  65              		.type	ff_del_syncobj, %function
  66              	ff_del_syncobj:
  67              	.LFB6:
  68              		.loc 1 64 0
  69              		.cfi_startproc
  70              		@ args = 0, pretend = 0, frame = 0
  71              		@ frame_needed = 0, uses_anonymous_args = 0
  72              		@ link register save eliminated.
  73              	.LVL4:
  74              		.loc 1 80 0
  75 0000 0120     		movs	r0, #1
  76              	.LVL5:
  77 0002 7047     		bx	lr
  78              		.cfi_endproc
  79              	.LFE6:
  80              		.size	ff_del_syncobj, .-ff_del_syncobj
  81 0004 AFF30080 		.section	.text.ff_req_grant,"ax",%progbits
  81      AFF30080 
  81      AFF30080 
  82              		.align	2
  83              		.p2align 4,,15
  84              		.global	ff_req_grant
  85              		.thumb
  86              		.thumb_func
  87              		.type	ff_req_grant, %function
  88              	ff_req_grant:
  89              	.LFB7:
  90              		.loc 1 94 0
  91              		.cfi_startproc
  92              		@ args = 0, pretend = 0, frame = 0
  93              		@ frame_needed = 0, uses_anonymous_args = 0
  94              	.LVL6:
  95 0000 00B5     		push	{lr}
  96              	.LCFI1:
  97              		.cfi_def_cfa_offset 4
  98              		.loc 1 105 0
  99              		.cfi_offset 14, -4
 100 0002 FFF7FEFF 		bl	chMtxLock
 101              	.LVL7:
 102              		.loc 1 110 0
 103 0006 0120     		movs	r0, #1
 104 0008 00BD     		pop	{pc}
 105              		.cfi_endproc
 106              	.LFE7:
 107              		.size	ff_req_grant, .-ff_req_grant
 108 000a 00BFAFF3 		.section	.text.ff_rel_grant,"ax",%progbits
ARM GAS  /tmp/cc9mLEv8.s 			page 3


 108      0080
 109              		.align	2
 110              		.p2align 4,,15
 111              		.global	ff_rel_grant
 112              		.thumb
 113              		.thumb_func
 114              		.type	ff_rel_grant, %function
 115              	ff_rel_grant:
 116              	.LFB8:
 117              		.loc 1 123 0
 118              		.cfi_startproc
 119              		@ args = 0, pretend = 0, frame = 0
 120              		@ frame_needed = 0, uses_anonymous_args = 0
 121              	.LVL8:
 122 0000 00B5     		push	{lr}
 123              	.LCFI2:
 124              		.cfi_def_cfa_offset 4
 125              		.loc 1 132 0
 126              		.cfi_offset 14, -4
 127 0002 FFF7FEFF 		bl	chMtxUnlock
 128              	.LVL9:
 129              		.loc 1 134 0
 130 0006 00BD     		pop	{pc}
 131              		.cfi_endproc
 132              	.LFE8:
 133              		.size	ff_rel_grant, .-ff_rel_grant
 134 0008 AFF30080 		.section	.bss.mutexes,"aw",%nobits
 134      AFF30080 
 135              		.align	2
 136              		.set	.LANCHOR0,. + 0
 137              		.type	mutexes, %object
 138              		.size	mutexes, 16
 139              	mutexes:
 140 0000 00000000 		.space	16
 140      00000000 
 140      00000000 
 140      00000000 
 141              		.text
 142              	.Letext0:
 143              		.section	.debug_loc,"",%progbits
 144              	.Ldebug_loc0:
 145              	.LLST0:
 146 0000 00000000 		.4byte	.LFB5
 147 0004 06000000 		.4byte	.LCFI0
 148 0008 0200     		.2byte	0x2
 149 000a 7D       		.byte	0x7d
 150 000b 00       		.sleb128 0
 151 000c 06000000 		.4byte	.LCFI0
 152 0010 1E000000 		.4byte	.LFE5
 153 0014 0200     		.2byte	0x2
 154 0016 7D       		.byte	0x7d
 155 0017 0C       		.sleb128 12
 156 0018 00000000 		.4byte	0x0
 157 001c 00000000 		.4byte	0x0
 158              	.LLST1:
 159 0020 00000000 		.4byte	.LVL0
 160 0024 12000000 		.4byte	.LVL1
ARM GAS  /tmp/cc9mLEv8.s 			page 4


 161 0028 0100     		.2byte	0x1
 162 002a 50       		.byte	0x50
 163 002b 00000000 		.4byte	0x0
 164 002f 00000000 		.4byte	0x0
 165              	.LLST2:
 166 0033 00000000 		.4byte	.LVL0
 167 0037 17000000 		.4byte	.LVL2-1
 168 003b 0100     		.2byte	0x1
 169 003d 51       		.byte	0x51
 170 003e 17000000 		.4byte	.LVL2-1
 171 0042 1E000000 		.4byte	.LFE5
 172 0046 0100     		.2byte	0x1
 173 0048 55       		.byte	0x55
 174 0049 00000000 		.4byte	0x0
 175 004d 00000000 		.4byte	0x0
 176              	.LLST3:
 177 0051 00000000 		.4byte	.LVL4
 178 0055 02000000 		.4byte	.LVL5
 179 0059 0100     		.2byte	0x1
 180 005b 50       		.byte	0x50
 181 005c 00000000 		.4byte	0x0
 182 0060 00000000 		.4byte	0x0
 183              	.LLST4:
 184 0064 00000000 		.4byte	.LFB7
 185 0068 02000000 		.4byte	.LCFI1
 186 006c 0200     		.2byte	0x2
 187 006e 7D       		.byte	0x7d
 188 006f 00       		.sleb128 0
 189 0070 02000000 		.4byte	.LCFI1
 190 0074 0A000000 		.4byte	.LFE7
 191 0078 0200     		.2byte	0x2
 192 007a 7D       		.byte	0x7d
 193 007b 04       		.sleb128 4
 194 007c 00000000 		.4byte	0x0
 195 0080 00000000 		.4byte	0x0
 196              	.LLST5:
 197 0084 00000000 		.4byte	.LVL6
 198 0088 05000000 		.4byte	.LVL7-1
 199 008c 0100     		.2byte	0x1
 200 008e 50       		.byte	0x50
 201 008f 00000000 		.4byte	0x0
 202 0093 00000000 		.4byte	0x0
 203              	.LLST6:
 204 0097 00000000 		.4byte	.LFB8
 205 009b 02000000 		.4byte	.LCFI2
 206 009f 0200     		.2byte	0x2
 207 00a1 7D       		.byte	0x7d
 208 00a2 00       		.sleb128 0
 209 00a3 02000000 		.4byte	.LCFI2
 210 00a7 08000000 		.4byte	.LFE8
 211 00ab 0200     		.2byte	0x2
 212 00ad 7D       		.byte	0x7d
 213 00ae 04       		.sleb128 4
 214 00af 00000000 		.4byte	0x0
 215 00b3 00000000 		.4byte	0x0
 216              	.LLST7:
 217 00b7 00000000 		.4byte	.LVL8
ARM GAS  /tmp/cc9mLEv8.s 			page 5


 218 00bb 05000000 		.4byte	.LVL9-1
 219 00bf 0100     		.2byte	0x1
 220 00c1 50       		.byte	0x50
 221 00c2 00000000 		.4byte	0x0
 222 00c6 00000000 		.4byte	0x0
 223              		.file 2 "/home/lxir/opt/arm-gnu/bin/../lib/gcc/arm-none-eabi/4.5.0/../../../../arm-none-eabi/inclu
 224              		.file 3 "chibios/os/ports/GCC/ARMCM3/chtypes.h"
 225              		.file 4 "chibios/os/kernel/include/lists.h"
 226              		.file 5 "chibios/os/kernel/include/threads.h"
 227              		.file 6 "chibios/os/ports/GCC/ARMCM3/chcore.h"
 228              		.file 7 "chibios/os/kernel/include/semaphores.h"
 229              		.file 8 "chibios/os/kernel/include/mutexes.h"
 230              		.file 9 "chibios/os/kernel/include/condvars.h"
 231              		.file 10 "chibios/ext/fatfs/src/option/../integer.h"
 232              		.section	.debug_info
 233 0000 64050000 		.4byte	0x564
 234 0004 0200     		.2byte	0x2
 235 0006 00000000 		.4byte	.Ldebug_abbrev0
 236 000a 04       		.byte	0x4
 237 000b 01       		.uleb128 0x1
 238 000c BB020000 		.4byte	.LASF66
 239 0010 01       		.byte	0x1
 240 0011 F6010000 		.4byte	.LASF67
 241 0015 2E000000 		.4byte	.LASF68
 242 0019 00000000 		.4byte	0x0
 243 001d 00000000 		.4byte	0x0
 244 0021 00000000 		.4byte	.Ldebug_ranges0+0x0
 245 0025 00000000 		.4byte	.Ldebug_line0
 246 0029 02       		.uleb128 0x2
 247 002a 04       		.byte	0x4
 248 002b 05       		.byte	0x5
 249 002c B4000000 		.4byte	.LASF0
 250 0030 02       		.uleb128 0x2
 251 0031 04       		.byte	0x4
 252 0032 07       		.byte	0x7
 253 0033 0E010000 		.4byte	.LASF1
 254 0037 02       		.uleb128 0x2
 255 0038 01       		.byte	0x1
 256 0039 06       		.byte	0x6
 257 003a 8B000000 		.4byte	.LASF2
 258 003e 03       		.uleb128 0x3
 259 003f B3020000 		.4byte	.LASF6
 260 0043 02       		.byte	0x2
 261 0044 2A       		.byte	0x2a
 262 0045 49000000 		.4byte	0x49
 263 0049 02       		.uleb128 0x2
 264 004a 01       		.byte	0x1
 265 004b 08       		.byte	0x8
 266 004c BE010000 		.4byte	.LASF3
 267 0050 02       		.uleb128 0x2
 268 0051 02       		.byte	0x2
 269 0052 05       		.byte	0x5
 270 0053 DF010000 		.4byte	.LASF4
 271 0057 02       		.uleb128 0x2
 272 0058 02       		.byte	0x2
 273 0059 07       		.byte	0x7
 274 005a 2E010000 		.4byte	.LASF5
ARM GAS  /tmp/cc9mLEv8.s 			page 6


 275 005e 03       		.uleb128 0x3
 276 005f B6010000 		.4byte	.LASF7
 277 0063 02       		.byte	0x2
 278 0064 4F       		.byte	0x4f
 279 0065 29000000 		.4byte	0x29
 280 0069 03       		.uleb128 0x3
 281 006a 5D020000 		.4byte	.LASF8
 282 006e 02       		.byte	0x2
 283 006f 50       		.byte	0x50
 284 0070 30000000 		.4byte	0x30
 285 0074 02       		.uleb128 0x2
 286 0075 08       		.byte	0x8
 287 0076 05       		.byte	0x5
 288 0077 7D000000 		.4byte	.LASF9
 289 007b 02       		.uleb128 0x2
 290 007c 08       		.byte	0x8
 291 007d 07       		.byte	0x7
 292 007e 0F000000 		.4byte	.LASF10
 293 0082 04       		.uleb128 0x4
 294 0083 04       		.byte	0x4
 295 0084 05       		.byte	0x5
 296 0085 696E7400 		.ascii	"int\000"
 297 0089 02       		.uleb128 0x2
 298 008a 04       		.byte	0x4
 299 008b 07       		.byte	0x7
 300 008c FA000000 		.4byte	.LASF11
 301 0090 03       		.uleb128 0x3
 302 0091 5B010000 		.4byte	.LASF12
 303 0095 03       		.byte	0x3
 304 0096 2F       		.byte	0x2f
 305 0097 3E000000 		.4byte	0x3e
 306 009b 03       		.uleb128 0x3
 307 009c CC000000 		.4byte	.LASF13
 308 00a0 03       		.byte	0x3
 309 00a1 30       		.byte	0x30
 310 00a2 3E000000 		.4byte	0x3e
 311 00a6 03       		.uleb128 0x3
 312 00a7 AE010000 		.4byte	.LASF14
 313 00ab 03       		.byte	0x3
 314 00ac 31       		.byte	0x31
 315 00ad 69000000 		.4byte	0x69
 316 00b1 03       		.uleb128 0x3
 317 00b2 41010000 		.4byte	.LASF15
 318 00b6 03       		.byte	0x3
 319 00b7 32       		.byte	0x32
 320 00b8 5E000000 		.4byte	0x5e
 321 00bc 03       		.uleb128 0x3
 322 00bd 63010000 		.4byte	.LASF16
 323 00c1 03       		.byte	0x3
 324 00c2 34       		.byte	0x34
 325 00c3 69000000 		.4byte	0x69
 326 00c7 03       		.uleb128 0x3
 327 00c8 7B020000 		.4byte	.LASF17
 328 00cc 03       		.byte	0x3
 329 00cd 35       		.byte	0x35
 330 00ce 69000000 		.4byte	0x69
 331 00d2 03       		.uleb128 0x3
ARM GAS  /tmp/cc9mLEv8.s 			page 7


 332 00d3 F4000000 		.4byte	.LASF18
 333 00d7 03       		.byte	0x3
 334 00d8 36       		.byte	0x36
 335 00d9 5E000000 		.4byte	0x5e
 336 00dd 03       		.uleb128 0x3
 337 00de 43020000 		.4byte	.LASF19
 338 00e2 04       		.byte	0x4
 339 00e3 25       		.byte	0x25
 340 00e4 E8000000 		.4byte	0xe8
 341 00e8 05       		.uleb128 0x5
 342 00e9 43020000 		.4byte	.LASF19
 343 00ed 3C       		.byte	0x3c
 344 00ee 05       		.byte	0x5
 345 00ef 37       		.byte	0x37
 346 00f0 C9010000 		.4byte	0x1c9
 347 00f4 06       		.uleb128 0x6
 348 00f5 2A020000 		.4byte	.LASF20
 349 00f9 05       		.byte	0x5
 350 00fa 38       		.byte	0x38
 351 00fb EE010000 		.4byte	0x1ee
 352 00ff 02       		.byte	0x2
 353 0100 23       		.byte	0x23
 354 0101 00       		.uleb128 0x0
 355 0102 06       		.uleb128 0x6
 356 0103 A7010000 		.4byte	.LASF21
 357 0107 05       		.byte	0x5
 358 0108 3B       		.byte	0x3b
 359 0109 EE010000 		.4byte	0x1ee
 360 010d 02       		.byte	0x2
 361 010e 23       		.byte	0x23
 362 010f 04       		.uleb128 0x4
 363 0110 06       		.uleb128 0x6
 364 0111 76000000 		.4byte	.LASF22
 365 0115 05       		.byte	0x5
 366 0116 3E       		.byte	0x3e
 367 0117 A6000000 		.4byte	0xa6
 368 011b 02       		.byte	0x2
 369 011c 23       		.byte	0x23
 370 011d 08       		.uleb128 0x8
 371 011e 06       		.uleb128 0x6
 372 011f E9010000 		.4byte	.LASF23
 373 0123 05       		.byte	0x5
 374 0124 40       		.byte	0x40
 375 0125 9B000000 		.4byte	0x9b
 376 0129 02       		.byte	0x2
 377 012a 23       		.byte	0x23
 378 012b 0C       		.uleb128 0xc
 379 012c 06       		.uleb128 0x6
 380 012d 31020000 		.4byte	.LASF24
 381 0131 05       		.byte	0x5
 382 0132 41       		.byte	0x41
 383 0133 90000000 		.4byte	0x90
 384 0137 02       		.byte	0x2
 385 0138 23       		.byte	0x23
 386 0139 0D       		.uleb128 0xd
 387 013a 06       		.uleb128 0x6
 388 013b DE020000 		.4byte	.LASF25
ARM GAS  /tmp/cc9mLEv8.s 			page 8


 389 013f 05       		.byte	0x5
 390 0140 42       		.byte	0x42
 391 0141 0A030000 		.4byte	0x30a
 392 0145 02       		.byte	0x2
 393 0146 23       		.byte	0x23
 394 0147 10       		.uleb128 0x10
 395 0148 06       		.uleb128 0x6
 396 0149 90020000 		.4byte	.LASF26
 397 014d 05       		.byte	0x5
 398 014e 47       		.byte	0x47
 399 014f 2B030000 		.4byte	0x32b
 400 0153 02       		.byte	0x2
 401 0154 23       		.byte	0x23
 402 0155 14       		.uleb128 0x14
 403 0156 07       		.uleb128 0x7
 404 0157 D2030000 		.4byte	0x3d2
 405 015b 02       		.byte	0x2
 406 015c 23       		.byte	0x23
 407 015d 18       		.uleb128 0x18
 408 015e 06       		.uleb128 0x6
 409 015f E4020000 		.4byte	.LASF27
 410 0163 05       		.byte	0x5
 411 0164 6E       		.byte	0x6e
 412 0165 EE010000 		.4byte	0x1ee
 413 0169 02       		.byte	0x2
 414 016a 23       		.byte	0x23
 415 016b 1C       		.uleb128 0x1c
 416 016c 06       		.uleb128 0x6
 417 016d 9E020000 		.4byte	.LASF28
 418 0171 05       		.byte	0x5
 419 0172 71       		.byte	0x71
 420 0173 F4010000 		.4byte	0x1f4
 421 0177 02       		.byte	0x2
 422 0178 23       		.byte	0x23
 423 0179 20       		.uleb128 0x20
 424 017a 06       		.uleb128 0x6
 425 017b 00000000 		.4byte	.LASF29
 426 017f 05       		.byte	0x5
 427 0180 72       		.byte	0x72
 428 0181 B1000000 		.4byte	0xb1
 429 0185 02       		.byte	0x2
 430 0186 23       		.byte	0x23
 431 0187 28       		.uleb128 0x28
 432 0188 06       		.uleb128 0x6
 433 0189 52020000 		.4byte	.LASF30
 434 018d 05       		.byte	0x5
 435 018e 75       		.byte	0x75
 436 018f BC000000 		.4byte	0xbc
 437 0193 02       		.byte	0x2
 438 0194 23       		.byte	0x23
 439 0195 2C       		.uleb128 0x2c
 440 0196 06       		.uleb128 0x6
 441 0197 D5010000 		.4byte	.LASF31
 442 019b 05       		.byte	0x5
 443 019c 78       		.byte	0x78
 444 019d 39040000 		.4byte	0x439
 445 01a1 02       		.byte	0x2
ARM GAS  /tmp/cc9mLEv8.s 			page 9


 446 01a2 23       		.byte	0x23
 447 01a3 30       		.uleb128 0x30
 448 01a4 06       		.uleb128 0x6
 449 01a5 85020000 		.4byte	.LASF32
 450 01a9 05       		.byte	0x5
 451 01aa 7A       		.byte	0x7a
 452 01ab A6000000 		.4byte	0xa6
 453 01af 02       		.byte	0x2
 454 01b0 23       		.byte	0x23
 455 01b1 34       		.uleb128 0x34
 456 01b2 06       		.uleb128 0x6
 457 01b3 9C000000 		.4byte	.LASF33
 458 01b7 05       		.byte	0x5
 459 01b8 7E       		.byte	0x7e
 460 01b9 0A020000 		.4byte	0x20a
 461 01bd 02       		.byte	0x2
 462 01be 23       		.byte	0x23
 463 01bf 38       		.uleb128 0x38
 464 01c0 07       		.uleb128 0x7
 465 01c1 45040000 		.4byte	0x445
 466 01c5 02       		.byte	0x2
 467 01c6 23       		.byte	0x23
 468 01c7 3C       		.uleb128 0x3c
 469 01c8 00       		.byte	0x0
 470 01c9 08       		.uleb128 0x8
 471 01ca 08       		.byte	0x8
 472 01cb 04       		.byte	0x4
 473 01cc 4A       		.byte	0x4a
 474 01cd EE010000 		.4byte	0x1ee
 475 01d1 06       		.uleb128 0x6
 476 01d2 2A020000 		.4byte	.LASF20
 477 01d6 04       		.byte	0x4
 478 01d7 4B       		.byte	0x4b
 479 01d8 EE010000 		.4byte	0x1ee
 480 01dc 02       		.byte	0x2
 481 01dd 23       		.byte	0x23
 482 01de 00       		.uleb128 0x0
 483 01df 06       		.uleb128 0x6
 484 01e0 A7010000 		.4byte	.LASF21
 485 01e4 04       		.byte	0x4
 486 01e5 4D       		.byte	0x4d
 487 01e6 EE010000 		.4byte	0x1ee
 488 01ea 02       		.byte	0x2
 489 01eb 23       		.byte	0x23
 490 01ec 04       		.uleb128 0x4
 491 01ed 00       		.byte	0x0
 492 01ee 09       		.uleb128 0x9
 493 01ef 04       		.byte	0x4
 494 01f0 DD000000 		.4byte	0xdd
 495 01f4 03       		.uleb128 0x3
 496 01f5 85010000 		.4byte	.LASF34
 497 01f9 04       		.byte	0x4
 498 01fa 4F       		.byte	0x4f
 499 01fb C9010000 		.4byte	0x1c9
 500 01ff 03       		.uleb128 0x3
 501 0200 E6000000 		.4byte	.LASF35
 502 0204 06       		.byte	0x6
ARM GAS  /tmp/cc9mLEv8.s 			page 10


 503 0205 6F       		.byte	0x6f
 504 0206 0A020000 		.4byte	0x20a
 505 020a 0A       		.uleb128 0xa
 506 020b 04       		.byte	0x4
 507 020c 05       		.uleb128 0x5
 508 020d 97020000 		.4byte	.LASF36
 509 0211 48       		.byte	0x48
 510 0212 06       		.byte	0x6
 511 0213 7D       		.byte	0x7d
 512 0214 0A030000 		.4byte	0x30a
 513 0218 06       		.uleb128 0x6
 514 0219 9F010000 		.4byte	.LASF37
 515 021d 06       		.byte	0x6
 516 021e 7E       		.byte	0x7e
 517 021f FF010000 		.4byte	0x1ff
 518 0223 02       		.byte	0x2
 519 0224 23       		.byte	0x23
 520 0225 00       		.uleb128 0x0
 521 0226 0B       		.uleb128 0xb
 522 0227 723400   		.ascii	"r4\000"
 523 022a 06       		.byte	0x6
 524 022b 7F       		.byte	0x7f
 525 022c FF010000 		.4byte	0x1ff
 526 0230 02       		.byte	0x2
 527 0231 23       		.byte	0x23
 528 0232 04       		.uleb128 0x4
 529 0233 0B       		.uleb128 0xb
 530 0234 723500   		.ascii	"r5\000"
 531 0237 06       		.byte	0x6
 532 0238 80       		.byte	0x80
 533 0239 FF010000 		.4byte	0x1ff
 534 023d 02       		.byte	0x2
 535 023e 23       		.byte	0x23
 536 023f 08       		.uleb128 0x8
 537 0240 0B       		.uleb128 0xb
 538 0241 723600   		.ascii	"r6\000"
 539 0244 06       		.byte	0x6
 540 0245 81       		.byte	0x81
 541 0246 FF010000 		.4byte	0x1ff
 542 024a 02       		.byte	0x2
 543 024b 23       		.byte	0x23
 544 024c 0C       		.uleb128 0xc
 545 024d 0B       		.uleb128 0xb
 546 024e 723700   		.ascii	"r7\000"
 547 0251 06       		.byte	0x6
 548 0252 83       		.byte	0x83
 549 0253 FF010000 		.4byte	0x1ff
 550 0257 02       		.byte	0x2
 551 0258 23       		.byte	0x23
 552 0259 10       		.uleb128 0x10
 553 025a 0B       		.uleb128 0xb
 554 025b 723800   		.ascii	"r8\000"
 555 025e 06       		.byte	0x6
 556 025f 85       		.byte	0x85
 557 0260 FF010000 		.4byte	0x1ff
 558 0264 02       		.byte	0x2
 559 0265 23       		.byte	0x23
ARM GAS  /tmp/cc9mLEv8.s 			page 11


 560 0266 14       		.uleb128 0x14
 561 0267 0B       		.uleb128 0xb
 562 0268 723900   		.ascii	"r9\000"
 563 026b 06       		.byte	0x6
 564 026c 86       		.byte	0x86
 565 026d FF010000 		.4byte	0x1ff
 566 0271 02       		.byte	0x2
 567 0272 23       		.byte	0x23
 568 0273 18       		.uleb128 0x18
 569 0274 0B       		.uleb128 0xb
 570 0275 72313000 		.ascii	"r10\000"
 571 0279 06       		.byte	0x6
 572 027a 87       		.byte	0x87
 573 027b FF010000 		.4byte	0x1ff
 574 027f 02       		.byte	0x2
 575 0280 23       		.byte	0x23
 576 0281 1C       		.uleb128 0x1c
 577 0282 0B       		.uleb128 0xb
 578 0283 72313100 		.ascii	"r11\000"
 579 0287 06       		.byte	0x6
 580 0288 88       		.byte	0x88
 581 0289 FF010000 		.4byte	0x1ff
 582 028d 02       		.byte	0x2
 583 028e 23       		.byte	0x23
 584 028f 20       		.uleb128 0x20
 585 0290 06       		.uleb128 0x6
 586 0291 6F010000 		.4byte	.LASF38
 587 0295 06       		.byte	0x6
 588 0296 89       		.byte	0x89
 589 0297 FF010000 		.4byte	0x1ff
 590 029b 02       		.byte	0x2
 591 029c 23       		.byte	0x23
 592 029d 24       		.uleb128 0x24
 593 029e 0B       		.uleb128 0xb
 594 029f 723000   		.ascii	"r0\000"
 595 02a2 06       		.byte	0x6
 596 02a3 8A       		.byte	0x8a
 597 02a4 FF010000 		.4byte	0x1ff
 598 02a8 02       		.byte	0x2
 599 02a9 23       		.byte	0x23
 600 02aa 28       		.uleb128 0x28
 601 02ab 0B       		.uleb128 0xb
 602 02ac 723100   		.ascii	"r1\000"
 603 02af 06       		.byte	0x6
 604 02b0 8B       		.byte	0x8b
 605 02b1 FF010000 		.4byte	0x1ff
 606 02b5 02       		.byte	0x2
 607 02b6 23       		.byte	0x23
 608 02b7 2C       		.uleb128 0x2c
 609 02b8 0B       		.uleb128 0xb
 610 02b9 723200   		.ascii	"r2\000"
 611 02bc 06       		.byte	0x6
 612 02bd 8C       		.byte	0x8c
 613 02be FF010000 		.4byte	0x1ff
 614 02c2 02       		.byte	0x2
 615 02c3 23       		.byte	0x23
 616 02c4 30       		.uleb128 0x30
ARM GAS  /tmp/cc9mLEv8.s 			page 12


 617 02c5 0B       		.uleb128 0xb
 618 02c6 723300   		.ascii	"r3\000"
 619 02c9 06       		.byte	0x6
 620 02ca 8D       		.byte	0x8d
 621 02cb FF010000 		.4byte	0x1ff
 622 02cf 02       		.byte	0x2
 623 02d0 23       		.byte	0x23
 624 02d1 34       		.uleb128 0x34
 625 02d2 0B       		.uleb128 0xb
 626 02d3 72313200 		.ascii	"r12\000"
 627 02d7 06       		.byte	0x6
 628 02d8 8E       		.byte	0x8e
 629 02d9 FF010000 		.4byte	0x1ff
 630 02dd 02       		.byte	0x2
 631 02de 23       		.byte	0x23
 632 02df 38       		.uleb128 0x38
 633 02e0 06       		.uleb128 0x6
 634 02e1 07010000 		.4byte	.LASF39
 635 02e5 06       		.byte	0x6
 636 02e6 8F       		.byte	0x8f
 637 02e7 FF010000 		.4byte	0x1ff
 638 02eb 02       		.byte	0x2
 639 02ec 23       		.byte	0x23
 640 02ed 3C       		.uleb128 0x3c
 641 02ee 0B       		.uleb128 0xb
 642 02ef 706300   		.ascii	"pc\000"
 643 02f2 06       		.byte	0x6
 644 02f3 90       		.byte	0x90
 645 02f4 FF010000 		.4byte	0x1ff
 646 02f8 02       		.byte	0x2
 647 02f9 23       		.byte	0x23
 648 02fa 40       		.uleb128 0x40
 649 02fb 06       		.uleb128 0x6
 650 02fc F1010000 		.4byte	.LASF40
 651 0300 06       		.byte	0x6
 652 0301 91       		.byte	0x91
 653 0302 FF010000 		.4byte	0x1ff
 654 0306 02       		.byte	0x2
 655 0307 23       		.byte	0x23
 656 0308 44       		.uleb128 0x44
 657 0309 00       		.byte	0x0
 658 030a 05       		.uleb128 0x5
 659 030b 26010000 		.4byte	.LASF41
 660 030f 04       		.byte	0x4
 661 0310 06       		.byte	0x6
 662 0311 99       		.byte	0x99
 663 0312 25030000 		.4byte	0x325
 664 0316 0B       		.uleb128 0xb
 665 0317 72313300 		.ascii	"r13\000"
 666 031b 06       		.byte	0x6
 667 031c 9A       		.byte	0x9a
 668 031d 25030000 		.4byte	0x325
 669 0321 02       		.byte	0x2
 670 0322 23       		.byte	0x23
 671 0323 00       		.uleb128 0x0
 672 0324 00       		.byte	0x0
 673 0325 09       		.uleb128 0x9
ARM GAS  /tmp/cc9mLEv8.s 			page 13


 674 0326 04       		.byte	0x4
 675 0327 0C020000 		.4byte	0x20c
 676 032b 0C       		.uleb128 0xc
 677 032c C7000000 		.4byte	0xc7
 678 0330 05       		.uleb128 0x5
 679 0331 A9020000 		.4byte	.LASF42
 680 0335 0C       		.byte	0xc
 681 0336 07       		.byte	0x7
 682 0337 2A       		.byte	0x2a
 683 0338 59030000 		.4byte	0x359
 684 033c 06       		.uleb128 0x6
 685 033d DE000000 		.4byte	.LASF43
 686 0341 07       		.byte	0x7
 687 0342 2B       		.byte	0x2b
 688 0343 F4010000 		.4byte	0x1f4
 689 0347 02       		.byte	0x2
 690 0348 23       		.byte	0x23
 691 0349 00       		.uleb128 0x0
 692 034a 06       		.uleb128 0x6
 693 034b 20010000 		.4byte	.LASF44
 694 034f 07       		.byte	0x7
 695 0350 2D       		.byte	0x2d
 696 0351 D2000000 		.4byte	0xd2
 697 0355 02       		.byte	0x2
 698 0356 23       		.byte	0x23
 699 0357 08       		.uleb128 0x8
 700 0358 00       		.byte	0x0
 701 0359 03       		.uleb128 0x3
 702 035a A9020000 		.4byte	.LASF42
 703 035e 07       		.byte	0x7
 704 035f 2E       		.byte	0x2e
 705 0360 30030000 		.4byte	0x330
 706 0364 05       		.uleb128 0x5
 707 0365 7F010000 		.4byte	.LASF45
 708 0369 10       		.byte	0x10
 709 036a 08       		.byte	0x8
 710 036b 2A       		.byte	0x2a
 711 036c 9B030000 		.4byte	0x39b
 712 0370 06       		.uleb128 0x6
 713 0371 A4000000 		.4byte	.LASF46
 714 0375 08       		.byte	0x8
 715 0376 2B       		.byte	0x2b
 716 0377 F4010000 		.4byte	0x1f4
 717 037b 02       		.byte	0x2
 718 037c 23       		.byte	0x23
 719 037d 00       		.uleb128 0x0
 720 037e 06       		.uleb128 0x6
 721 037f D6020000 		.4byte	.LASF47
 722 0383 08       		.byte	0x8
 723 0384 2D       		.byte	0x2d
 724 0385 EE010000 		.4byte	0x1ee
 725 0389 02       		.byte	0x2
 726 038a 23       		.byte	0x23
 727 038b 08       		.uleb128 0x8
 728 038c 06       		.uleb128 0x6
 729 038d 74020000 		.4byte	.LASF48
 730 0391 08       		.byte	0x8
ARM GAS  /tmp/cc9mLEv8.s 			page 14


 731 0392 2F       		.byte	0x2f
 732 0393 9B030000 		.4byte	0x39b
 733 0397 02       		.byte	0x2
 734 0398 23       		.byte	0x23
 735 0399 0C       		.uleb128 0xc
 736 039a 00       		.byte	0x0
 737 039b 09       		.uleb128 0x9
 738 039c 04       		.byte	0x4
 739 039d 64030000 		.4byte	0x364
 740 03a1 03       		.uleb128 0x3
 741 03a2 7F010000 		.4byte	.LASF45
 742 03a6 08       		.byte	0x8
 743 03a7 31       		.byte	0x31
 744 03a8 64030000 		.4byte	0x364
 745 03ac 05       		.uleb128 0x5
 746 03ad AC000000 		.4byte	.LASF49
 747 03b1 08       		.byte	0x8
 748 03b2 09       		.byte	0x9
 749 03b3 35       		.byte	0x35
 750 03b4 C7030000 		.4byte	0x3c7
 751 03b8 06       		.uleb128 0x6
 752 03b9 4A020000 		.4byte	.LASF50
 753 03bd 09       		.byte	0x9
 754 03be 36       		.byte	0x36
 755 03bf F4010000 		.4byte	0x1f4
 756 03c3 02       		.byte	0x2
 757 03c4 23       		.byte	0x23
 758 03c5 00       		.uleb128 0x0
 759 03c6 00       		.byte	0x0
 760 03c7 03       		.uleb128 0x3
 761 03c8 AC000000 		.4byte	.LASF49
 762 03cc 09       		.byte	0x9
 763 03cd 37       		.byte	0x37
 764 03ce AC030000 		.4byte	0x3ac
 765 03d2 0D       		.uleb128 0xd
 766 03d3 04       		.byte	0x4
 767 03d4 05       		.byte	0x5
 768 03d5 4F       		.byte	0x4f
 769 03d6 33040000 		.4byte	0x433
 770 03da 0E       		.uleb128 0xe
 771 03db 6B020000 		.4byte	.LASF51
 772 03df 05       		.byte	0x5
 773 03e0 50       		.byte	0x50
 774 03e1 B1000000 		.4byte	0xb1
 775 03e5 0E       		.uleb128 0xe
 776 03e6 47010000 		.4byte	.LASF52
 777 03ea 05       		.byte	0x5
 778 03eb 51       		.byte	0x51
 779 03ec B1000000 		.4byte	0xb1
 780 03f0 0E       		.uleb128 0xe
 781 03f1 CC010000 		.4byte	.LASF53
 782 03f5 05       		.byte	0x5
 783 03f6 53       		.byte	0x53
 784 03f7 0A020000 		.4byte	0x20a
 785 03fb 0E       		.uleb128 0xe
 786 03fc 06000000 		.4byte	.LASF54
 787 0400 05       		.byte	0x5
ARM GAS  /tmp/cc9mLEv8.s 			page 15


 788 0401 56       		.byte	0x56
 789 0402 33040000 		.4byte	0x433
 790 0406 0E       		.uleb128 0xe
 791 0407 76010000 		.4byte	.LASF55
 792 040b 05       		.byte	0x5
 793 040c 5A       		.byte	0x5a
 794 040d 39040000 		.4byte	0x439
 795 0411 0E       		.uleb128 0xe
 796 0412 39020000 		.4byte	.LASF56
 797 0416 05       		.byte	0x5
 798 0417 5E       		.byte	0x5e
 799 0418 3F040000 		.4byte	0x43f
 800 041c 0E       		.uleb128 0xe
 801 041d D5000000 		.4byte	.LASF57
 802 0421 05       		.byte	0x5
 803 0422 62       		.byte	0x62
 804 0423 EE010000 		.4byte	0x1ee
 805 0427 0E       		.uleb128 0xe
 806 0428 52010000 		.4byte	.LASF58
 807 042c 05       		.byte	0x5
 808 042d 66       		.byte	0x66
 809 042e BC000000 		.4byte	0xbc
 810 0432 00       		.byte	0x0
 811 0433 09       		.uleb128 0x9
 812 0434 04       		.byte	0x4
 813 0435 59030000 		.4byte	0x359
 814 0439 09       		.uleb128 0x9
 815 043a 04       		.byte	0x4
 816 043b A1030000 		.4byte	0x3a1
 817 043f 09       		.uleb128 0x9
 818 0440 04       		.byte	0x4
 819 0441 C7030000 		.4byte	0x3c7
 820 0445 0F       		.uleb128 0xf
 821 0446 00       		.byte	0x0
 822 0447 05       		.byte	0x5
 823 0448 82       		.byte	0x82
 824 0449 10       		.uleb128 0x10
 825 044a 04       		.byte	0x4
 826 044b 07       		.byte	0x7
 827 044c 03       		.uleb128 0x3
 828 044d EF000000 		.4byte	.LASF59
 829 0451 0A       		.byte	0xa
 830 0452 12       		.byte	0x12
 831 0453 49000000 		.4byte	0x49
 832 0457 02       		.uleb128 0x2
 833 0458 01       		.byte	0x1
 834 0459 08       		.byte	0x8
 835 045a 66020000 		.4byte	.LASF60
 836 045e 11       		.uleb128 0x11
 837 045f 01       		.byte	0x1
 838 0460 BD000000 		.4byte	.LASF62
 839 0464 01       		.byte	0x1
 840 0465 1A       		.byte	0x1a
 841 0466 01       		.byte	0x1
 842 0467 82000000 		.4byte	0x82
 843 046b 00000000 		.4byte	.LFB5
 844 046f 1E000000 		.4byte	.LFE5
ARM GAS  /tmp/cc9mLEv8.s 			page 16


 845 0473 00000000 		.4byte	.LLST0
 846 0477 A6040000 		.4byte	0x4a6
 847 047b 12       		.uleb128 0x12
 848 047c 766F6C00 		.ascii	"vol\000"
 849 0480 01       		.byte	0x1
 850 0481 1B       		.byte	0x1b
 851 0482 4C040000 		.4byte	0x44c
 852 0486 20000000 		.4byte	.LLST1
 853 048a 13       		.uleb128 0x13
 854 048b 97000000 		.4byte	.LASF61
 855 048f 01       		.byte	0x1
 856 0490 1C       		.byte	0x1c
 857 0491 A6040000 		.4byte	0x4a6
 858 0495 33000000 		.4byte	.LLST2
 859 0499 14       		.uleb128 0x14
 860 049a 72657400 		.ascii	"ret\000"
 861 049e 01       		.byte	0x1
 862 049f 1F       		.byte	0x1f
 863 04a0 82000000 		.4byte	0x82
 864 04a4 01       		.byte	0x1
 865 04a5 00       		.byte	0x0
 866 04a6 09       		.uleb128 0x9
 867 04a7 04       		.byte	0x4
 868 04a8 0A020000 		.4byte	0x20a
 869 04ac 15       		.uleb128 0x15
 870 04ad 01       		.byte	0x1
 871 04ae C7020000 		.4byte	.LASF63
 872 04b2 01       		.byte	0x1
 873 04b3 3D       		.byte	0x3d
 874 04b4 01       		.byte	0x1
 875 04b5 82000000 		.4byte	0x82
 876 04b9 00000000 		.4byte	.LFB6
 877 04bd 04000000 		.4byte	.LFE6
 878 04c1 02       		.byte	0x2
 879 04c2 7D       		.byte	0x7d
 880 04c3 00       		.sleb128 0
 881 04c4 E4040000 		.4byte	0x4e4
 882 04c8 13       		.uleb128 0x13
 883 04c9 97000000 		.4byte	.LASF61
 884 04cd 01       		.byte	0x1
 885 04ce 3E       		.byte	0x3e
 886 04cf 0A020000 		.4byte	0x20a
 887 04d3 51000000 		.4byte	.LLST3
 888 04d7 14       		.uleb128 0x14
 889 04d8 72657400 		.ascii	"ret\000"
 890 04dc 01       		.byte	0x1
 891 04dd 41       		.byte	0x41
 892 04de 82000000 		.4byte	0x82
 893 04e2 01       		.byte	0x1
 894 04e3 00       		.byte	0x0
 895 04e4 11       		.uleb128 0x11
 896 04e5 01       		.byte	0x1
 897 04e6 92010000 		.4byte	.LASF64
 898 04ea 01       		.byte	0x1
 899 04eb 5B       		.byte	0x5b
 900 04ec 01       		.byte	0x1
 901 04ed 82000000 		.4byte	0x82
ARM GAS  /tmp/cc9mLEv8.s 			page 17


 902 04f1 00000000 		.4byte	.LFB7
 903 04f5 0A000000 		.4byte	.LFE7
 904 04f9 64000000 		.4byte	.LLST4
 905 04fd 1D050000 		.4byte	0x51d
 906 0501 13       		.uleb128 0x13
 907 0502 97000000 		.4byte	.LASF61
 908 0506 01       		.byte	0x1
 909 0507 5C       		.byte	0x5c
 910 0508 0A020000 		.4byte	0x20a
 911 050c 84000000 		.4byte	.LLST5
 912 0510 14       		.uleb128 0x14
 913 0511 72657400 		.ascii	"ret\000"
 914 0515 01       		.byte	0x1
 915 0516 5F       		.byte	0x5f
 916 0517 82000000 		.4byte	0x82
 917 051b 01       		.byte	0x1
 918 051c 00       		.byte	0x0
 919 051d 16       		.uleb128 0x16
 920 051e 01       		.byte	0x1
 921 051f 1D020000 		.4byte	.LASF69
 922 0523 01       		.byte	0x1
 923 0524 78       		.byte	0x78
 924 0525 01       		.byte	0x1
 925 0526 00000000 		.4byte	.LFB8
 926 052a 08000000 		.4byte	.LFE8
 927 052e 97000000 		.4byte	.LLST6
 928 0532 46050000 		.4byte	0x546
 929 0536 13       		.uleb128 0x13
 930 0537 97000000 		.4byte	.LASF61
 931 053b 01       		.byte	0x1
 932 053c 79       		.byte	0x79
 933 053d 0A020000 		.4byte	0x20a
 934 0541 B7000000 		.4byte	.LLST7
 935 0545 00       		.byte	0x0
 936 0546 17       		.uleb128 0x17
 937 0547 A1030000 		.4byte	0x3a1
 938 054b 56050000 		.4byte	0x556
 939 054f 18       		.uleb128 0x18
 940 0550 49040000 		.4byte	0x449
 941 0554 00       		.byte	0x0
 942 0555 00       		.byte	0x0
 943 0556 19       		.uleb128 0x19
 944 0557 26000000 		.4byte	.LASF65
 945 055b 01       		.byte	0x1
 946 055c 0F       		.byte	0xf
 947 055d 46050000 		.4byte	0x546
 948 0561 05       		.byte	0x5
 949 0562 03       		.byte	0x3
 950 0563 00000000 		.4byte	mutexes
 951 0567 00       		.byte	0x0
 952              		.section	.debug_abbrev
 953 0000 01       		.uleb128 0x1
 954 0001 11       		.uleb128 0x11
 955 0002 01       		.byte	0x1
 956 0003 25       		.uleb128 0x25
 957 0004 0E       		.uleb128 0xe
 958 0005 13       		.uleb128 0x13
ARM GAS  /tmp/cc9mLEv8.s 			page 18


 959 0006 0B       		.uleb128 0xb
 960 0007 03       		.uleb128 0x3
 961 0008 0E       		.uleb128 0xe
 962 0009 1B       		.uleb128 0x1b
 963 000a 0E       		.uleb128 0xe
 964 000b 11       		.uleb128 0x11
 965 000c 01       		.uleb128 0x1
 966 000d 52       		.uleb128 0x52
 967 000e 01       		.uleb128 0x1
 968 000f 55       		.uleb128 0x55
 969 0010 06       		.uleb128 0x6
 970 0011 10       		.uleb128 0x10
 971 0012 06       		.uleb128 0x6
 972 0013 00       		.byte	0x0
 973 0014 00       		.byte	0x0
 974 0015 02       		.uleb128 0x2
 975 0016 24       		.uleb128 0x24
 976 0017 00       		.byte	0x0
 977 0018 0B       		.uleb128 0xb
 978 0019 0B       		.uleb128 0xb
 979 001a 3E       		.uleb128 0x3e
 980 001b 0B       		.uleb128 0xb
 981 001c 03       		.uleb128 0x3
 982 001d 0E       		.uleb128 0xe
 983 001e 00       		.byte	0x0
 984 001f 00       		.byte	0x0
 985 0020 03       		.uleb128 0x3
 986 0021 16       		.uleb128 0x16
 987 0022 00       		.byte	0x0
 988 0023 03       		.uleb128 0x3
 989 0024 0E       		.uleb128 0xe
 990 0025 3A       		.uleb128 0x3a
 991 0026 0B       		.uleb128 0xb
 992 0027 3B       		.uleb128 0x3b
 993 0028 0B       		.uleb128 0xb
 994 0029 49       		.uleb128 0x49
 995 002a 13       		.uleb128 0x13
 996 002b 00       		.byte	0x0
 997 002c 00       		.byte	0x0
 998 002d 04       		.uleb128 0x4
 999 002e 24       		.uleb128 0x24
 1000 002f 00       		.byte	0x0
 1001 0030 0B       		.uleb128 0xb
 1002 0031 0B       		.uleb128 0xb
 1003 0032 3E       		.uleb128 0x3e
 1004 0033 0B       		.uleb128 0xb
 1005 0034 03       		.uleb128 0x3
 1006 0035 08       		.uleb128 0x8
 1007 0036 00       		.byte	0x0
 1008 0037 00       		.byte	0x0
 1009 0038 05       		.uleb128 0x5
 1010 0039 13       		.uleb128 0x13
 1011 003a 01       		.byte	0x1
 1012 003b 03       		.uleb128 0x3
 1013 003c 0E       		.uleb128 0xe
 1014 003d 0B       		.uleb128 0xb
 1015 003e 0B       		.uleb128 0xb
ARM GAS  /tmp/cc9mLEv8.s 			page 19


 1016 003f 3A       		.uleb128 0x3a
 1017 0040 0B       		.uleb128 0xb
 1018 0041 3B       		.uleb128 0x3b
 1019 0042 0B       		.uleb128 0xb
 1020 0043 01       		.uleb128 0x1
 1021 0044 13       		.uleb128 0x13
 1022 0045 00       		.byte	0x0
 1023 0046 00       		.byte	0x0
 1024 0047 06       		.uleb128 0x6
 1025 0048 0D       		.uleb128 0xd
 1026 0049 00       		.byte	0x0
 1027 004a 03       		.uleb128 0x3
 1028 004b 0E       		.uleb128 0xe
 1029 004c 3A       		.uleb128 0x3a
 1030 004d 0B       		.uleb128 0xb
 1031 004e 3B       		.uleb128 0x3b
 1032 004f 0B       		.uleb128 0xb
 1033 0050 49       		.uleb128 0x49
 1034 0051 13       		.uleb128 0x13
 1035 0052 38       		.uleb128 0x38
 1036 0053 0A       		.uleb128 0xa
 1037 0054 00       		.byte	0x0
 1038 0055 00       		.byte	0x0
 1039 0056 07       		.uleb128 0x7
 1040 0057 0D       		.uleb128 0xd
 1041 0058 00       		.byte	0x0
 1042 0059 49       		.uleb128 0x49
 1043 005a 13       		.uleb128 0x13
 1044 005b 38       		.uleb128 0x38
 1045 005c 0A       		.uleb128 0xa
 1046 005d 00       		.byte	0x0
 1047 005e 00       		.byte	0x0
 1048 005f 08       		.uleb128 0x8
 1049 0060 13       		.uleb128 0x13
 1050 0061 01       		.byte	0x1
 1051 0062 0B       		.uleb128 0xb
 1052 0063 0B       		.uleb128 0xb
 1053 0064 3A       		.uleb128 0x3a
 1054 0065 0B       		.uleb128 0xb
 1055 0066 3B       		.uleb128 0x3b
 1056 0067 0B       		.uleb128 0xb
 1057 0068 01       		.uleb128 0x1
 1058 0069 13       		.uleb128 0x13
 1059 006a 00       		.byte	0x0
 1060 006b 00       		.byte	0x0
 1061 006c 09       		.uleb128 0x9
 1062 006d 0F       		.uleb128 0xf
 1063 006e 00       		.byte	0x0
 1064 006f 0B       		.uleb128 0xb
 1065 0070 0B       		.uleb128 0xb
 1066 0071 49       		.uleb128 0x49
 1067 0072 13       		.uleb128 0x13
 1068 0073 00       		.byte	0x0
 1069 0074 00       		.byte	0x0
 1070 0075 0A       		.uleb128 0xa
 1071 0076 0F       		.uleb128 0xf
 1072 0077 00       		.byte	0x0
ARM GAS  /tmp/cc9mLEv8.s 			page 20


 1073 0078 0B       		.uleb128 0xb
 1074 0079 0B       		.uleb128 0xb
 1075 007a 00       		.byte	0x0
 1076 007b 00       		.byte	0x0
 1077 007c 0B       		.uleb128 0xb
 1078 007d 0D       		.uleb128 0xd
 1079 007e 00       		.byte	0x0
 1080 007f 03       		.uleb128 0x3
 1081 0080 08       		.uleb128 0x8
 1082 0081 3A       		.uleb128 0x3a
 1083 0082 0B       		.uleb128 0xb
 1084 0083 3B       		.uleb128 0x3b
 1085 0084 0B       		.uleb128 0xb
 1086 0085 49       		.uleb128 0x49
 1087 0086 13       		.uleb128 0x13
 1088 0087 38       		.uleb128 0x38
 1089 0088 0A       		.uleb128 0xa
 1090 0089 00       		.byte	0x0
 1091 008a 00       		.byte	0x0
 1092 008b 0C       		.uleb128 0xc
 1093 008c 35       		.uleb128 0x35
 1094 008d 00       		.byte	0x0
 1095 008e 49       		.uleb128 0x49
 1096 008f 13       		.uleb128 0x13
 1097 0090 00       		.byte	0x0
 1098 0091 00       		.byte	0x0
 1099 0092 0D       		.uleb128 0xd
 1100 0093 17       		.uleb128 0x17
 1101 0094 01       		.byte	0x1
 1102 0095 0B       		.uleb128 0xb
 1103 0096 0B       		.uleb128 0xb
 1104 0097 3A       		.uleb128 0x3a
 1105 0098 0B       		.uleb128 0xb
 1106 0099 3B       		.uleb128 0x3b
 1107 009a 0B       		.uleb128 0xb
 1108 009b 01       		.uleb128 0x1
 1109 009c 13       		.uleb128 0x13
 1110 009d 00       		.byte	0x0
 1111 009e 00       		.byte	0x0
 1112 009f 0E       		.uleb128 0xe
 1113 00a0 0D       		.uleb128 0xd
 1114 00a1 00       		.byte	0x0
 1115 00a2 03       		.uleb128 0x3
 1116 00a3 0E       		.uleb128 0xe
 1117 00a4 3A       		.uleb128 0x3a
 1118 00a5 0B       		.uleb128 0xb
 1119 00a6 3B       		.uleb128 0x3b
 1120 00a7 0B       		.uleb128 0xb
 1121 00a8 49       		.uleb128 0x49
 1122 00a9 13       		.uleb128 0x13
 1123 00aa 00       		.byte	0x0
 1124 00ab 00       		.byte	0x0
 1125 00ac 0F       		.uleb128 0xf
 1126 00ad 13       		.uleb128 0x13
 1127 00ae 00       		.byte	0x0
 1128 00af 0B       		.uleb128 0xb
 1129 00b0 0B       		.uleb128 0xb
ARM GAS  /tmp/cc9mLEv8.s 			page 21


 1130 00b1 3A       		.uleb128 0x3a
 1131 00b2 0B       		.uleb128 0xb
 1132 00b3 3B       		.uleb128 0x3b
 1133 00b4 0B       		.uleb128 0xb
 1134 00b5 00       		.byte	0x0
 1135 00b6 00       		.byte	0x0
 1136 00b7 10       		.uleb128 0x10
 1137 00b8 24       		.uleb128 0x24
 1138 00b9 00       		.byte	0x0
 1139 00ba 0B       		.uleb128 0xb
 1140 00bb 0B       		.uleb128 0xb
 1141 00bc 3E       		.uleb128 0x3e
 1142 00bd 0B       		.uleb128 0xb
 1143 00be 00       		.byte	0x0
 1144 00bf 00       		.byte	0x0
 1145 00c0 11       		.uleb128 0x11
 1146 00c1 2E       		.uleb128 0x2e
 1147 00c2 01       		.byte	0x1
 1148 00c3 3F       		.uleb128 0x3f
 1149 00c4 0C       		.uleb128 0xc
 1150 00c5 03       		.uleb128 0x3
 1151 00c6 0E       		.uleb128 0xe
 1152 00c7 3A       		.uleb128 0x3a
 1153 00c8 0B       		.uleb128 0xb
 1154 00c9 3B       		.uleb128 0x3b
 1155 00ca 0B       		.uleb128 0xb
 1156 00cb 27       		.uleb128 0x27
 1157 00cc 0C       		.uleb128 0xc
 1158 00cd 49       		.uleb128 0x49
 1159 00ce 13       		.uleb128 0x13
 1160 00cf 11       		.uleb128 0x11
 1161 00d0 01       		.uleb128 0x1
 1162 00d1 12       		.uleb128 0x12
 1163 00d2 01       		.uleb128 0x1
 1164 00d3 40       		.uleb128 0x40
 1165 00d4 06       		.uleb128 0x6
 1166 00d5 01       		.uleb128 0x1
 1167 00d6 13       		.uleb128 0x13
 1168 00d7 00       		.byte	0x0
 1169 00d8 00       		.byte	0x0
 1170 00d9 12       		.uleb128 0x12
 1171 00da 05       		.uleb128 0x5
 1172 00db 00       		.byte	0x0
 1173 00dc 03       		.uleb128 0x3
 1174 00dd 08       		.uleb128 0x8
 1175 00de 3A       		.uleb128 0x3a
 1176 00df 0B       		.uleb128 0xb
 1177 00e0 3B       		.uleb128 0x3b
 1178 00e1 0B       		.uleb128 0xb
 1179 00e2 49       		.uleb128 0x49
 1180 00e3 13       		.uleb128 0x13
 1181 00e4 02       		.uleb128 0x2
 1182 00e5 06       		.uleb128 0x6
 1183 00e6 00       		.byte	0x0
 1184 00e7 00       		.byte	0x0
 1185 00e8 13       		.uleb128 0x13
 1186 00e9 05       		.uleb128 0x5
ARM GAS  /tmp/cc9mLEv8.s 			page 22


 1187 00ea 00       		.byte	0x0
 1188 00eb 03       		.uleb128 0x3
 1189 00ec 0E       		.uleb128 0xe
 1190 00ed 3A       		.uleb128 0x3a
 1191 00ee 0B       		.uleb128 0xb
 1192 00ef 3B       		.uleb128 0x3b
 1193 00f0 0B       		.uleb128 0xb
 1194 00f1 49       		.uleb128 0x49
 1195 00f2 13       		.uleb128 0x13
 1196 00f3 02       		.uleb128 0x2
 1197 00f4 06       		.uleb128 0x6
 1198 00f5 00       		.byte	0x0
 1199 00f6 00       		.byte	0x0
 1200 00f7 14       		.uleb128 0x14
 1201 00f8 34       		.uleb128 0x34
 1202 00f9 00       		.byte	0x0
 1203 00fa 03       		.uleb128 0x3
 1204 00fb 08       		.uleb128 0x8
 1205 00fc 3A       		.uleb128 0x3a
 1206 00fd 0B       		.uleb128 0xb
 1207 00fe 3B       		.uleb128 0x3b
 1208 00ff 0B       		.uleb128 0xb
 1209 0100 49       		.uleb128 0x49
 1210 0101 13       		.uleb128 0x13
 1211 0102 1C       		.uleb128 0x1c
 1212 0103 0B       		.uleb128 0xb
 1213 0104 00       		.byte	0x0
 1214 0105 00       		.byte	0x0
 1215 0106 15       		.uleb128 0x15
 1216 0107 2E       		.uleb128 0x2e
 1217 0108 01       		.byte	0x1
 1218 0109 3F       		.uleb128 0x3f
 1219 010a 0C       		.uleb128 0xc
 1220 010b 03       		.uleb128 0x3
 1221 010c 0E       		.uleb128 0xe
 1222 010d 3A       		.uleb128 0x3a
 1223 010e 0B       		.uleb128 0xb
 1224 010f 3B       		.uleb128 0x3b
 1225 0110 0B       		.uleb128 0xb
 1226 0111 27       		.uleb128 0x27
 1227 0112 0C       		.uleb128 0xc
 1228 0113 49       		.uleb128 0x49
 1229 0114 13       		.uleb128 0x13
 1230 0115 11       		.uleb128 0x11
 1231 0116 01       		.uleb128 0x1
 1232 0117 12       		.uleb128 0x12
 1233 0118 01       		.uleb128 0x1
 1234 0119 40       		.uleb128 0x40
 1235 011a 0A       		.uleb128 0xa
 1236 011b 01       		.uleb128 0x1
 1237 011c 13       		.uleb128 0x13
 1238 011d 00       		.byte	0x0
 1239 011e 00       		.byte	0x0
 1240 011f 16       		.uleb128 0x16
 1241 0120 2E       		.uleb128 0x2e
 1242 0121 01       		.byte	0x1
 1243 0122 3F       		.uleb128 0x3f
ARM GAS  /tmp/cc9mLEv8.s 			page 23


 1244 0123 0C       		.uleb128 0xc
 1245 0124 03       		.uleb128 0x3
 1246 0125 0E       		.uleb128 0xe
 1247 0126 3A       		.uleb128 0x3a
 1248 0127 0B       		.uleb128 0xb
 1249 0128 3B       		.uleb128 0x3b
 1250 0129 0B       		.uleb128 0xb
 1251 012a 27       		.uleb128 0x27
 1252 012b 0C       		.uleb128 0xc
 1253 012c 11       		.uleb128 0x11
 1254 012d 01       		.uleb128 0x1
 1255 012e 12       		.uleb128 0x12
 1256 012f 01       		.uleb128 0x1
 1257 0130 40       		.uleb128 0x40
 1258 0131 06       		.uleb128 0x6
 1259 0132 01       		.uleb128 0x1
 1260 0133 13       		.uleb128 0x13
 1261 0134 00       		.byte	0x0
 1262 0135 00       		.byte	0x0
 1263 0136 17       		.uleb128 0x17
 1264 0137 01       		.uleb128 0x1
 1265 0138 01       		.byte	0x1
 1266 0139 49       		.uleb128 0x49
 1267 013a 13       		.uleb128 0x13
 1268 013b 01       		.uleb128 0x1
 1269 013c 13       		.uleb128 0x13
 1270 013d 00       		.byte	0x0
 1271 013e 00       		.byte	0x0
 1272 013f 18       		.uleb128 0x18
 1273 0140 21       		.uleb128 0x21
 1274 0141 00       		.byte	0x0
 1275 0142 49       		.uleb128 0x49
 1276 0143 13       		.uleb128 0x13
 1277 0144 2F       		.uleb128 0x2f
 1278 0145 0B       		.uleb128 0xb
 1279 0146 00       		.byte	0x0
 1280 0147 00       		.byte	0x0
 1281 0148 19       		.uleb128 0x19
 1282 0149 34       		.uleb128 0x34
 1283 014a 00       		.byte	0x0
 1284 014b 03       		.uleb128 0x3
 1285 014c 0E       		.uleb128 0xe
 1286 014d 3A       		.uleb128 0x3a
 1287 014e 0B       		.uleb128 0xb
 1288 014f 3B       		.uleb128 0x3b
 1289 0150 0B       		.uleb128 0xb
 1290 0151 49       		.uleb128 0x49
 1291 0152 13       		.uleb128 0x13
 1292 0153 02       		.uleb128 0x2
 1293 0154 0A       		.uleb128 0xa
 1294 0155 00       		.byte	0x0
 1295 0156 00       		.byte	0x0
 1296 0157 00       		.byte	0x0
 1297              		.section	.debug_pubnames,"",%progbits
 1298 0000 56000000 		.4byte	0x56
 1299 0004 0200     		.2byte	0x2
 1300 0006 00000000 		.4byte	.Ldebug_info0
ARM GAS  /tmp/cc9mLEv8.s 			page 24


 1301 000a 68050000 		.4byte	0x568
 1302 000e 5E040000 		.4byte	0x45e
 1303 0012 66665F63 		.ascii	"ff_cre_syncobj\000"
 1303      72655F73 
 1303      796E636F 
 1303      626A00
 1304 0021 AC040000 		.4byte	0x4ac
 1305 0025 66665F64 		.ascii	"ff_del_syncobj\000"
 1305      656C5F73 
 1305      796E636F 
 1305      626A00
 1306 0034 E4040000 		.4byte	0x4e4
 1307 0038 66665F72 		.ascii	"ff_req_grant\000"
 1307      65715F67 
 1307      72616E74 
 1307      00
 1308 0045 1D050000 		.4byte	0x51d
 1309 0049 66665F72 		.ascii	"ff_rel_grant\000"
 1309      656C5F67 
 1309      72616E74 
 1309      00
 1310 0056 00000000 		.4byte	0x0
 1311              		.section	.debug_pubtypes,"",%progbits
 1312 0000 26010000 		.4byte	0x126
 1313 0004 0200     		.2byte	0x2
 1314 0006 00000000 		.4byte	.Ldebug_info0
 1315 000a 68050000 		.4byte	0x568
 1316 000e 3E000000 		.4byte	0x3e
 1317 0012 75696E74 		.ascii	"uint8_t\000"
 1317      385F7400 
 1318 001a 5E000000 		.4byte	0x5e
 1319 001e 696E7433 		.ascii	"int32_t\000"
 1319      325F7400 
 1320 0026 69000000 		.4byte	0x69
 1321 002a 75696E74 		.ascii	"uint32_t\000"
 1321      33325F74 
 1321      00
 1322 0033 90000000 		.4byte	0x90
 1323 0037 746D6F64 		.ascii	"tmode_t\000"
 1323      655F7400 
 1324 003f 9B000000 		.4byte	0x9b
 1325 0043 74737461 		.ascii	"tstate_t\000"
 1325      74655F74 
 1325      00
 1326 004c A6000000 		.4byte	0xa6
 1327 0050 74707269 		.ascii	"tprio_t\000"
 1327      6F5F7400 
 1328 0058 B1000000 		.4byte	0xb1
 1329 005c 6D73675F 		.ascii	"msg_t\000"
 1329      7400
 1330 0062 BC000000 		.4byte	0xbc
 1331 0066 6576656E 		.ascii	"eventmask_t\000"
 1331      746D6173 
 1331      6B5F7400 
 1332 0072 C7000000 		.4byte	0xc7
 1333 0076 73797374 		.ascii	"systime_t\000"
 1333      696D655F 
ARM GAS  /tmp/cc9mLEv8.s 			page 25


 1333      7400
 1334 0080 D2000000 		.4byte	0xd2
 1335 0084 636E745F 		.ascii	"cnt_t\000"
 1335      7400
 1336 008a DD000000 		.4byte	0xdd
 1337 008e 54687265 		.ascii	"Thread\000"
 1337      616400
 1338 0095 F4010000 		.4byte	0x1f4
 1339 0099 54687265 		.ascii	"ThreadsQueue\000"
 1339      61647351 
 1339      75657565 
 1339      00
 1340 00a6 FF010000 		.4byte	0x1ff
 1341 00aa 72656761 		.ascii	"regarm_t\000"
 1341      726D5F74 
 1341      00
 1342 00b3 0C020000 		.4byte	0x20c
 1343 00b7 696E7463 		.ascii	"intctx\000"
 1343      747800
 1344 00be 0A030000 		.4byte	0x30a
 1345 00c2 636F6E74 		.ascii	"context\000"
 1345      65787400 
 1346 00ca 30030000 		.4byte	0x330
 1347 00ce 53656D61 		.ascii	"Semaphore\000"
 1347      70686F72 
 1347      6500
 1348 00d8 59030000 		.4byte	0x359
 1349 00dc 53656D61 		.ascii	"Semaphore\000"
 1349      70686F72 
 1349      6500
 1350 00e6 64030000 		.4byte	0x364
 1351 00ea 4D757465 		.ascii	"Mutex\000"
 1351      7800
 1352 00f0 A1030000 		.4byte	0x3a1
 1353 00f4 4D757465 		.ascii	"Mutex\000"
 1353      7800
 1354 00fa AC030000 		.4byte	0x3ac
 1355 00fe 436F6E64 		.ascii	"CondVar\000"
 1355      56617200 
 1356 0106 C7030000 		.4byte	0x3c7
 1357 010a 436F6E64 		.ascii	"CondVar\000"
 1357      56617200 
 1358 0112 E8000000 		.4byte	0xe8
 1359 0116 54687265 		.ascii	"Thread\000"
 1359      616400
 1360 011d 4C040000 		.4byte	0x44c
 1361 0121 42595445 		.ascii	"BYTE\000"
 1361      00
 1362 0126 00000000 		.4byte	0x0
 1363              		.section	.debug_aranges,"",%progbits
 1364 0000 34000000 		.4byte	0x34
 1365 0004 0200     		.2byte	0x2
 1366 0006 00000000 		.4byte	.Ldebug_info0
 1367 000a 04       		.byte	0x4
 1368 000b 00       		.byte	0x0
 1369 000c 0000     		.2byte	0x0
 1370 000e 0000     		.2byte	0x0
ARM GAS  /tmp/cc9mLEv8.s 			page 26


 1371 0010 00000000 		.4byte	.LFB5
 1372 0014 1E000000 		.4byte	.LFE5-.LFB5
 1373 0018 00000000 		.4byte	.LFB6
 1374 001c 04000000 		.4byte	.LFE6-.LFB6
 1375 0020 00000000 		.4byte	.LFB7
 1376 0024 0A000000 		.4byte	.LFE7-.LFB7
 1377 0028 00000000 		.4byte	.LFB8
 1378 002c 08000000 		.4byte	.LFE8-.LFB8
 1379 0030 00000000 		.4byte	0x0
 1380 0034 00000000 		.4byte	0x0
 1381              		.section	.debug_ranges,"",%progbits
 1382              	.Ldebug_ranges0:
 1383 0000 00000000 		.4byte	.LFB5
 1384 0004 1E000000 		.4byte	.LFE5
 1385 0008 00000000 		.4byte	.LFB6
 1386 000c 04000000 		.4byte	.LFE6
 1387 0010 00000000 		.4byte	.LFB7
 1388 0014 0A000000 		.4byte	.LFE7
 1389 0018 00000000 		.4byte	.LFB8
 1390 001c 08000000 		.4byte	.LFE8
 1391 0020 00000000 		.4byte	0x0
 1392 0024 00000000 		.4byte	0x0
 1393              		.section	.debug_str,"MS",%progbits,1
 1394              	.LASF29:
 1395 0000 705F6D73 		.ascii	"p_msg\000"
 1395      6700
 1396              	.LASF54:
 1397 0006 705F7774 		.ascii	"p_wtsemp\000"
 1397      73656D70 
 1397      00
 1398              	.LASF10:
 1399 000f 6C6F6E67 		.ascii	"long long unsigned int\000"
 1399      206C6F6E 
 1399      6720756E 
 1399      7369676E 
 1399      65642069 
 1400              	.LASF65:
 1401 0026 6D757465 		.ascii	"mutexes\000"
 1401      78657300 
 1402              	.LASF68:
 1403 002e 2F686F6D 		.ascii	"/home/lxir/Documents/repos/krobot-resources/arm/STM"
 1403      652F6C78 
 1403      69722F44 
 1403      6F63756D 
 1403      656E7473 
 1404 0061 33322F74 		.ascii	"32/templates/ChibiOS\000"
 1404      656D706C 
 1404      61746573 
 1404      2F436869 
 1404      62694F53 
 1405              	.LASF22:
 1406 0076 705F7072 		.ascii	"p_prio\000"
 1406      696F00
 1407              	.LASF9:
 1408 007d 6C6F6E67 		.ascii	"long long int\000"
 1408      206C6F6E 
 1408      6720696E 
ARM GAS  /tmp/cc9mLEv8.s 			page 27


 1408      7400
 1409              	.LASF2:
 1410 008b 7369676E 		.ascii	"signed char\000"
 1410      65642063 
 1410      68617200 
 1411              	.LASF61:
 1412 0097 736F626A 		.ascii	"sobj\000"
 1412      00
 1413              	.LASF33:
 1414 009c 705F6D70 		.ascii	"p_mpool\000"
 1414      6F6F6C00 
 1415              	.LASF46:
 1416 00a4 6D5F7175 		.ascii	"m_queue\000"
 1416      65756500 
 1417              	.LASF49:
 1418 00ac 436F6E64 		.ascii	"CondVar\000"
 1418      56617200 
 1419              	.LASF0:
 1420 00b4 6C6F6E67 		.ascii	"long int\000"
 1420      20696E74 
 1420      00
 1421              	.LASF62:
 1422 00bd 66665F63 		.ascii	"ff_cre_syncobj\000"
 1422      72655F73 
 1422      796E636F 
 1422      626A00
 1423              	.LASF13:
 1424 00cc 74737461 		.ascii	"tstate_t\000"
 1424      74655F74 
 1424      00
 1425              	.LASF57:
 1426 00d5 705F7774 		.ascii	"p_wtthdp\000"
 1426      74686470 
 1426      00
 1427              	.LASF43:
 1428 00de 735F7175 		.ascii	"s_queue\000"
 1428      65756500 
 1429              	.LASF35:
 1430 00e6 72656761 		.ascii	"regarm_t\000"
 1430      726D5F74 
 1430      00
 1431              	.LASF59:
 1432 00ef 42595445 		.ascii	"BYTE\000"
 1432      00
 1433              	.LASF18:
 1434 00f4 636E745F 		.ascii	"cnt_t\000"
 1434      7400
 1435              	.LASF11:
 1436 00fa 756E7369 		.ascii	"unsigned int\000"
 1436      676E6564 
 1436      20696E74 
 1436      00
 1437              	.LASF39:
 1438 0107 6C725F74 		.ascii	"lr_thd\000"
 1438      686400
 1439              	.LASF1:
 1440 010e 6C6F6E67 		.ascii	"long unsigned int\000"
ARM GAS  /tmp/cc9mLEv8.s 			page 28


 1440      20756E73 
 1440      69676E65 
 1440      6420696E 
 1440      7400
 1441              	.LASF44:
 1442 0120 735F636E 		.ascii	"s_cnt\000"
 1442      7400
 1443              	.LASF41:
 1444 0126 636F6E74 		.ascii	"context\000"
 1444      65787400 
 1445              	.LASF5:
 1446 012e 73686F72 		.ascii	"short unsigned int\000"
 1446      7420756E 
 1446      7369676E 
 1446      65642069 
 1446      6E7400
 1447              	.LASF15:
 1448 0141 6D73675F 		.ascii	"msg_t\000"
 1448      7400
 1449              	.LASF52:
 1450 0147 705F6578 		.ascii	"p_exitcode\000"
 1450      6974636F 
 1450      646500
 1451              	.LASF58:
 1452 0152 705F6577 		.ascii	"p_ewmask\000"
 1452      6D61736B 
 1452      00
 1453              	.LASF12:
 1454 015b 746D6F64 		.ascii	"tmode_t\000"
 1454      655F7400 
 1455              	.LASF16:
 1456 0163 6576656E 		.ascii	"eventmask_t\000"
 1456      746D6173 
 1456      6B5F7400 
 1457              	.LASF38:
 1458 016f 6C725F65 		.ascii	"lr_exc\000"
 1458      786300
 1459              	.LASF55:
 1460 0176 705F7774 		.ascii	"p_wtmtxp\000"
 1460      6D747870 
 1460      00
 1461              	.LASF45:
 1462 017f 4D757465 		.ascii	"Mutex\000"
 1462      7800
 1463              	.LASF34:
 1464 0185 54687265 		.ascii	"ThreadsQueue\000"
 1464      61647351 
 1464      75657565 
 1464      00
 1465              	.LASF64:
 1466 0192 66665F72 		.ascii	"ff_req_grant\000"
 1466      65715F67 
 1466      72616E74 
 1466      00
 1467              	.LASF37:
 1468 019f 62617365 		.ascii	"basepri\000"
 1468      70726900 
ARM GAS  /tmp/cc9mLEv8.s 			page 29


 1469              	.LASF21:
 1470 01a7 705F7072 		.ascii	"p_prev\000"
 1470      657600
 1471              	.LASF14:
 1472 01ae 74707269 		.ascii	"tprio_t\000"
 1472      6F5F7400 
 1473              	.LASF7:
 1474 01b6 696E7433 		.ascii	"int32_t\000"
 1474      325F7400 
 1475              	.LASF3:
 1476 01be 756E7369 		.ascii	"unsigned char\000"
 1476      676E6564 
 1476      20636861 
 1476      7200
 1477              	.LASF53:
 1478 01cc 705F7774 		.ascii	"p_wtobjp\000"
 1478      6F626A70 
 1478      00
 1479              	.LASF31:
 1480 01d5 705F6D74 		.ascii	"p_mtxlist\000"
 1480      786C6973 
 1480      7400
 1481              	.LASF4:
 1482 01df 73686F72 		.ascii	"short int\000"
 1482      7420696E 
 1482      7400
 1483              	.LASF23:
 1484 01e9 705F7374 		.ascii	"p_state\000"
 1484      61746500 
 1485              	.LASF40:
 1486 01f1 78707372 		.ascii	"xpsr\000"
 1486      00
 1487              	.LASF67:
 1488 01f6 63686962 		.ascii	"chibios/ext/fatfs/src/option/syncobj.c\000"
 1488      696F732F 
 1488      6578742F 
 1488      66617466 
 1488      732F7372 
 1489              	.LASF69:
 1490 021d 66665F72 		.ascii	"ff_rel_grant\000"
 1490      656C5F67 
 1490      72616E74 
 1490      00
 1491              	.LASF20:
 1492 022a 705F6E65 		.ascii	"p_next\000"
 1492      787400
 1493              	.LASF24:
 1494 0231 705F666C 		.ascii	"p_flags\000"
 1494      61677300 
 1495              	.LASF56:
 1496 0239 705F7774 		.ascii	"p_wtcondp\000"
 1496      636F6E64 
 1496      7000
 1497              	.LASF19:
 1498 0243 54687265 		.ascii	"Thread\000"
 1498      616400
 1499              	.LASF50:
ARM GAS  /tmp/cc9mLEv8.s 			page 30


 1500 024a 635F7175 		.ascii	"c_queue\000"
 1500      65756500 
 1501              	.LASF30:
 1502 0252 705F6570 		.ascii	"p_epending\000"
 1502      656E6469 
 1502      6E6700
 1503              	.LASF8:
 1504 025d 75696E74 		.ascii	"uint32_t\000"
 1504      33325F74 
 1504      00
 1505              	.LASF60:
 1506 0266 63686172 		.ascii	"char\000"
 1506      00
 1507              	.LASF51:
 1508 026b 705F7264 		.ascii	"p_rdymsg\000"
 1508      796D7367 
 1508      00
 1509              	.LASF48:
 1510 0274 6D5F6E65 		.ascii	"m_next\000"
 1510      787400
 1511              	.LASF17:
 1512 027b 73797374 		.ascii	"systime_t\000"
 1512      696D655F 
 1512      7400
 1513              	.LASF32:
 1514 0285 705F7265 		.ascii	"p_realprio\000"
 1514      616C7072 
 1514      696F00
 1515              	.LASF26:
 1516 0290 705F7469 		.ascii	"p_time\000"
 1516      6D6500
 1517              	.LASF36:
 1518 0297 696E7463 		.ascii	"intctx\000"
 1518      747800
 1519              	.LASF28:
 1520 029e 705F6D73 		.ascii	"p_msgqueue\000"
 1520      67717565 
 1520      756500
 1521              	.LASF42:
 1522 02a9 53656D61 		.ascii	"Semaphore\000"
 1522      70686F72 
 1522      6500
 1523              	.LASF6:
 1524 02b3 75696E74 		.ascii	"uint8_t\000"
 1524      385F7400 
 1525              	.LASF66:
 1526 02bb 474E5520 		.ascii	"GNU C 4.5.0\000"
 1526      4320342E 
 1526      352E3000 
 1527              	.LASF63:
 1528 02c7 66665F64 		.ascii	"ff_del_syncobj\000"
 1528      656C5F73 
 1528      796E636F 
 1528      626A00
 1529              	.LASF47:
 1530 02d6 6D5F6F77 		.ascii	"m_owner\000"
 1530      6E657200 
ARM GAS  /tmp/cc9mLEv8.s 			page 31


 1531              	.LASF25:
 1532 02de 705F6374 		.ascii	"p_ctx\000"
 1532      7800
 1533              	.LASF27:
 1534 02e4 705F7761 		.ascii	"p_waiting\000"
 1534      6974696E 
 1534      6700
 1535              		.ident	"GCC: (GNU) 4.5.0"
ARM GAS  /tmp/cc9mLEv8.s 			page 32


DEFINED SYMBOLS
                            *ABS*:00000000 syncobj.c
     /tmp/cc9mLEv8.s:14     .text.ff_cre_syncobj:00000000 $t
     /tmp/cc9mLEv8.s:20     .text.ff_cre_syncobj:00000000 ff_cre_syncobj
     /tmp/cc9mLEv8.s:136    .bss.mutexes:00000000 .LANCHOR0
     /tmp/cc9mLEv8.s:60     .text.ff_del_syncobj:00000000 $t
     /tmp/cc9mLEv8.s:66     .text.ff_del_syncobj:00000000 ff_del_syncobj
     /tmp/cc9mLEv8.s:82     .text.ff_req_grant:00000000 $t
     /tmp/cc9mLEv8.s:88     .text.ff_req_grant:00000000 ff_req_grant
     /tmp/cc9mLEv8.s:109    .text.ff_rel_grant:00000000 $t
     /tmp/cc9mLEv8.s:115    .text.ff_rel_grant:00000000 ff_rel_grant
     /tmp/cc9mLEv8.s:135    .bss.mutexes:00000000 $d
     /tmp/cc9mLEv8.s:139    .bss.mutexes:00000000 mutexes
                     .debug_frame:00000010 $d

UNDEFINED SYMBOLS
chMtxInit
chMtxLock
chMtxUnlock
